{
    "/js/site.js": "/js/site.js",
    "/css/site.css": "/css/site.css",
    "/css/auth.css": "/css/auth.css",
    "/css/admin.css": "/css/admin.css",
    "/css/logs.css": "/css/logs.css",
    "/css/error.css": "/css/error.css",
    "/js/logs.js": "/js/logs.js",
    "/js/admin.js": "/js/admin.js",
    "/js/error.js": "/js/error.js",
    "/js/auth.js": "/js/auth.js"
}
